[gd_scene load_steps=4 format=2]

[ext_resource path="res://assets/sprites/misc/arrow.png" type="Texture" id=1]
[ext_resource path="res://actors/arrow/Arrow.gd" type="Script" id=2]

[sub_resource type="RectangleShape2D" id=1]
extents = Vector2( 1.73889, 3.33693 )

[node name="Arrow" type="Area2D"]
script = ExtResource( 2 )

[node name="Image" type="Sprite" parent="."]
texture = ExtResource( 1 )

[node name="Collision" type="CollisionShape2D" parent="."]
position = Vector2( -0.441891, -7.39213 )
shape = SubResource( 1 )

[node name="VisibilityNotifier2D" type="VisibilityNotifier2D" parent="."]
position = Vector2( -0.6448, -0.671666 )
scale = Vector2( 0.199374, 0.932833 )
[connection signal="area_entered" from="." to="." method="_on_Arrow_area_entered"]
[connection signal="body_entered" from="." to="." method="_on_Arrow_body_entered"]
[connection signal="screen_exited" from="VisibilityNotifier2D" to="." method="_on_VisibilityNotifier2D_screen_exited"]
