[gd_resource type="TileSet" load_steps=5 format=2]

[ext_resource path="res://assets/environment/objects.png" type="Texture" id=1]

[sub_resource type="Shader" id=1]
code = "shader_type canvas_item;


void fragment() {
	
}"

[sub_resource type="ShaderMaterial" id=2]
shader = SubResource( 1 )

[sub_resource type="ConvexPolygonShape2D" id=3]
points = PoolVector2Array( 24, 56, 40, 56, 40, 72, 24, 72 )

[resource]
0/name = "objects.png 0"
0/texture = ExtResource( 1 )
0/tex_offset = Vector2( -36, -40 )
0/material = SubResource( 2 )
0/modulate = Color( 1, 1, 1, 1 )
0/region = Rect2( 48, 16, 72, 80 )
0/tile_mode = 0
0/occluder_offset = Vector2( 0, 0 )
0/navigation_offset = Vector2( 0, 0 )
0/shapes = [ {
"autotile_coord": Vector2( 0, 0 ),
"one_way": false,
"one_way_margin": 1.0,
"shape": SubResource( 3 ),
"shape_transform": Transform2D( 1, 0, 0, 1, -36, -40 )
} ]
0/z_index = 0
